Static drawr examples • shinysense
…
You can embedd you-draw-it style charts in your rmarkdown reports or plain standalone HTML documents by using shinysense::drawr. The options work almost identical to how they do in shinydrawr.

To demo this let’s generate a simple timeseries dataset for our charts:

plot_data <- tibble(
  x = 1:50, 
  value = sin(x)
)

plot_data
#> # A tibble: 50 x 2
#>        x  value
#>    <int>  <dbl>
#>  1     1  0.841
#>  2     2  0.909
#>  3     3  0.141
#>  4     4 -0.757
#>  5     5 -0.959
#>  6     6 -0.279
#>  7     7  0.657
#>  8     8  0.989
#>  9     9  0.412
#> 10    10 -0.544
#> # … with 40 more rows
…
